…
###Chapter 10: Tibble  
####10.2 Creating tibbles  

```r
as_tibble(iris)
```

```
## # A tibble: 150 x 5
##    Sepal.Length Sepal.Width Petal.Length Petal.Width Species
##           <dbl>       <dbl>        <dbl>       <dbl>  <fctr>
##  1          5.1         3.5          1.4         0.2  setosa
##  2          4.9         3.0          1.4         0.2  setosa
##  3          4.7         3.2          1.3         0.2  setosa
##  4          4.6         3.1          1.5         0.2  setosa
##  5          5.0         3.6          1.4         0.2  setosa
##  6          5.4         3.9          1.7         0.4  setosa
##  7          4.6         3.4          1.4         0.3  setosa
##  8          5.0         3.4          1.5         0.2  setosa
##  9          4.4         2.9          1.4         0.2  setosa
## 10          4.9         3.1          1.5         0.1  setosa
## # ... with 140 more rows
```
…
####10.3 Tibbles vs. data.frame  
#####10.3.1 Printing 

```r
tibble(
  a = lubridate::now() +runif(1e3) * 86400,
  b = lubridate::today() + runif(1e3) * 30,
  c = 1:1e3,
  d = runif(1e3),
  e = sample(letters, 1e3, replace = TRUE)
)
```

```
## # A tibble: 1,000 x 5
##                      a          b     c         d     e
##                 <dttm>     <date> <int>     <dbl> <chr>
##  1 2017-05-31 13:12:33 2017-06-11     1 0.9382424     n
##  2 2017-05-31 21:25:43 2017-06-27     2 0.2870410     k
##  3 2017-05-31 23:48:40 2017-06-22     3 0.3961865     a
##  4 2017-06-01 04:03:25 2017-06-26     4 0.9347569     r
##  5 2017-05-31 18:02:37 2017-06-08     5 0.3652527     f
##  6 2017-06-01 05:50:03 2017-06-29     6 0.7372463     t
##  7 2017-05-31 15:01:42 2017-06-11     7 0.3198001     n
##  8 2017-05-31 14:37:42 2017-06-11     8 0.3103825     i
##  9 2017-06-01 11:05:03 2017-06-20     9 0.5601266     f
## 10 2017-05-31 22:45:20 2017-06-23    10 0.5662771     w
## # ... with 990 more rows
```
…
```r
print(diamonds)
```

```
## # A tibble: 53,940 x 10
##    carat       cut color clarity depth table price     x     y     z
##    <dbl>     <ord> <ord>   <ord> <dbl> <dbl> <int> <dbl> <dbl> <dbl>
##  1  0.23     Ideal     E     SI2  61.5    55   326  3.95  3.98  2.43
##  2  0.21   Premium     E     SI1  59.8    61   326  3.89  3.84  2.31
##  3  0.23      Good     E     VS1  56.9    65   327  4.05  4.07  2.31
##  4  0.29   Premium     I     VS2  62.4    58   334  4.20  4.23  2.63
##  5  0.31      Good     J     SI2  63.3    58   335  4.34  4.35  2.75
##  6  0.24 Very Good     J    VVS2  62.8    57   336  3.94  3.96  2.48
##  7  0.24 Very Good     I    VVS1  62.3    57   336  3.95  3.98  2.47
##  8  0.26 Very Good     H     SI1  61.9    55   337  4.07  4.11  2.53
##  9  0.22      Fair     E     VS2  65.1    61   337  3.87  3.78  2.49
## 10  0.23 Very Good     H     VS1  59.4    61   338  4.00  4.05  2.39
## # ... with 53,930 more rows
```
…
```
## [1] 1
```

the df$x command gave me the same output as df[,"xyz"]. I guess the "x"" was good enough to evoke "xyz?"  

3. If you have the name of a vairable stored in an object, e.g. var = "mpg", how can you extrat the reference variable from a tibble?

```r
diamonds %>%
  select(cut)
```

```
## # A tibble: 53,940 x 1
##          cut
##        <ord>
##  1     Ideal
##  2   Premium
##  3      Good
##  4   Premium
##  5      Good
##  6 Very Good
##  7 Very Good
##  8 Very Good
##  9      Fair
## 10 Very Good
## # ... with 53,930 more rows
```
…
