…
```
## Warning: 1000 parsing failures.
## row # A tibble: 5 x 5 col     row   col               expected             actual expected   <int> <chr>                  <chr>              <chr> actual 1  1001     x no trailing characters .23837975086644292 file 2  1002     x no trailing characters .41167997173033655 row 3  1003     x no trailing characters  .7460716762579978 col 4  1004     x no trailing characters   .723450553836301 expected 5  1005     x no trailing characters   .614524137461558 actual # ... with 1 more variables: file <chr>
## ... ................. ... ....................................................... ........ ....................................................... ...... ....................................................... .... ....................................................... ... ....................................................... ... ....................................................... ........ ....................................................... ...... .......................................
## See problems(...) for more details.
```

```r
problems(challenge)
```

```
## # A tibble: 1,000 x 5
##      row   col               expected             actual
##    <int> <chr>                  <chr>              <chr>
##  1  1001     x no trailing characters .23837975086644292
##  2  1002     x no trailing characters .41167997173033655
##  3  1003     x no trailing characters  .7460716762579978
##  4  1004     x no trailing characters   .723450553836301
##  5  1005     x no trailing characters   .614524137461558
##  6  1006     x no trailing characters   .473980569280684
##  7  1007     x no trailing characters  .5784610391128808
##  8  1008     x no trailing characters  .2415937229525298
##  9  1009     x no trailing characters .11437866208143532
## 10  1010     x no trailing characters  .2983446326106787
## # ... with 990 more rows, and 1 more variables: file <chr>
```
…
```
## Parsed with column specification:
## cols(
##   x = col_double(),
##   y = col_date(format = "")
## )
```

```r
challenge2
```

```
## # A tibble: 2,000 x 2
##        x      y
##    <dbl> <date>
##  1   404     NA
##  2  4172     NA
##  3  3004     NA
##  4   787     NA
##  5    37     NA
##  6  2332     NA
##  7  2489     NA
##  8  1449     NA
##  9  3665     NA
## 10  3863     NA
## # ... with 1,990 more rows
```
…
###11.5 Writing to a file  

```r
write_csv(challenge, "challenge.csv")
challenge
```

```
## # A tibble: 2,000 x 2
##        x      y
##    <dbl> <date>
##  1   404     NA
##  2  4172     NA
##  3  3004     NA
##  4   787     NA
##  5    37     NA
##  6  2332     NA
##  7  2489     NA
##  8  1449     NA
##  9  3665     NA
## 10  3863     NA
## # ... with 1,990 more rows
```
…
```
## Warning in rbind(names(probs), probs_f): number of columns of result is not
## a multiple of vector length (arg 1)
```

```
## Warning: 1000 parsing failures.
## row # A tibble: 5 x 5 col     row   col               expected             actual            file expected   <int> <chr>                  <chr>              <chr>           <chr> actual 1  1001     x no trailing characters .23837975086644292 'challenge.csv' file 2  1002     x no trailing characters .41167997173033655 'challenge.csv' row 3  1003     x no trailing characters  .7460716762579978 'challenge.csv' col 4  1004     x no trailing characters   .723450553836301 'challenge.csv' expected 5  1005     x no trailing characters   .614524137461558 'challenge.csv'
## ... ................. ... ....................................................................... ........ ....................................................................... ...... ....................................................................... .... ....................................................................... ... ....................................................................... ... ....................................................................... ........ .......................................................................
## See problems(...) for more details.
```

```
## # A tibble: 2,000 x 2
##        x     y
##    <int> <chr>
##  1   404  <NA>
##  2  4172  <NA>
##  3  3004  <NA>
##  4   787  <NA>
##  5    37  <NA>
##  6  2332  <NA>
##  7  2489  <NA>
##  8  1449  <NA>
##  9  3665  <NA>
## 10  3863  <NA>
## # ... with 1,990 more rows
```

```r
write_rds(challenge, "challenge.rds")
read_rds("challenge.rds")
```

```
## # A tibble: 2,000 x 2
##        x      y
##    <dbl> <date>
##  1   404     NA
##  2  4172     NA
##  3  3004     NA
##  4   787     NA
##  5    37     NA
##  6  2332     NA
##  7  2489     NA
##  8  1449     NA
##  9  3665     NA
## 10  3863     NA
## # ... with 1,990 more rows
```
