…
```r
unusual.z = diamonds %>%
  filter(z<1 | z>10) %>%
  select(price, x,y,z)
unusual.z
```

```
## # A tibble: 21 x 4
##    price     x     y     z
##    <int> <dbl> <dbl> <dbl>
##  1  3142  6.55  6.48     0
##  2  3167  6.66  6.60     0
##  3  3696  6.50  6.47     0
##  4  3837  6.50  6.47     0
##  5  4731  7.15  7.04     0
##  6  4954  0.00  6.62     0
##  7  5139  0.00  0.00     0
##  8  5564  6.88  6.83     0
##  9  6381  0.00  0.00     0
## 10 12631  8.49  8.45     0
## # ... with 11 more rows
```
…
```r
#somehow I remember the na.rm argument made a difference in the last homework, but they did not make any differnce in this homework...
```

####7.5 Covariance  
#####7.5.1 Categorical and continuous variables  

```r
diamonds
```

```
## # A tibble: 53,940 x 10
##    carat       cut color clarity depth table price     x     y     z
##    <dbl>     <ord> <ord>   <ord> <dbl> <dbl> <int> <dbl> <dbl> <dbl>
##  1  0.23     Ideal     E     SI2  61.5    55   326  3.95  3.98  2.43
##  2  0.21   Premium     E     SI1  59.8    61   326  3.89  3.84  2.31
##  3  0.23      Good     E     VS1  56.9    65   327  4.05  4.07  2.31
##  4  0.29   Premium     I     VS2  62.4    58   334  4.20  4.23  2.63
##  5  0.31      Good     J     SI2  63.3    58   335  4.34  4.35  2.75
##  6  0.24 Very Good     J    VVS2  62.8    57   336  3.94  3.96  2.48
##  7  0.24 Very Good     I    VVS1  62.3    57   336  3.95  3.98  2.47
##  8  0.26 Very Good     H     SI1  61.9    55   337  4.07  4.11  2.53
##  9  0.22      Fair     E     VS2  65.1    61   337  3.87  3.78  2.49
## 10  0.23 Very Good     H     VS1  59.4    61   338  4.00  4.05  2.39
## # ... with 53,930 more rows
```
…
