R_club_HW5
…
unusual.z = diamonds %>%
  filter(z<1 | z>10) %>%
  select(price, x,y,z)
unusual.z

## # A tibble: 21 x 4
##    price     x     y     z
##    <int> <dbl> <dbl> <dbl>
##  1  3142  6.55  6.48     0
##  2  3167  6.66  6.60     0
##  3  3696  6.50  6.47     0
##  4  3837  6.50  6.47     0
##  5  4731  7.15  7.04     0
##  6  4954  0.00  6.62     0
##  7  5139  0.00  0.00     0
##  8  5564  6.88  6.83     0
##  9  6381  0.00  0.00     0
## 10 12631  8.49  8.45     0
## # ... with 11 more rows
…
