…
Or the lack thereof:  

```r
flights %>%
  count(year, month, day, flight) %>%
  filter(n > 1)
```

```
## Source: local data frame [29,768 x 5]
## Groups: year, month, day [365]
## 
## # A tibble: 29,768 x 5
##     year month   day flight     n
##    <int> <int> <int>  <int> <int>
##  1  2013     1     1      1     2
##  2  2013     1     1      3     2
##  3  2013     1     1      4     2
##  4  2013     1     1     11     3
##  5  2013     1     1     15     2
##  6  2013     1     1     21     2
##  7  2013     1     1     27     4
##  8  2013     1     1     31     2
##  9  2013     1     1     32     2
## 10  2013     1     1     35     2
## # ... with 29,758 more rows
```

```r
flights %>%
  count(year, month, day, tailnum) %>%
  filter(n > 1)
```

```
## Source: local data frame [64,928 x 5]
## Groups: year, month, day [365]
## 
## # A tibble: 64,928 x 5
##     year month   day tailnum     n
##    <int> <int> <int>   <chr> <int>
##  1  2013     1     1  N0EGMQ     2
##  2  2013     1     1  N11189     2
##  3  2013     1     1  N11536     2
##  4  2013     1     1  N11544     3
##  5  2013     1     1  N11551     2
##  6  2013     1     1  N12540     2
##  7  2013     1     1  N12567     2
##  8  2013     1     1  N13123     2
##  9  2013     1     1  N13538     3
## 10  2013     1     1  N13566     3
## # ... with 64,918 more rows
```

####13.3.1 Exercises    
1. Add a surrogate key to flights.  

```r
?row_number()
primary_flights = flights %>%
  mutate(surrogate_key = row_number(flight))
primary_flights
```

```
## # A tibble: 336,776 x 20
##     year month   day dep_time sched_dep_time dep_delay arr_time
##    <int> <int> <int>    <int>          <int>     <dbl>    <int>
##  1  2013     1     1      517            515         2      830
##  2  2013     1     1      533            529         4      850
##  3  2013     1     1      542            540         2      923
##  4  2013     1     1      544            545        -1     1004
##  5  2013     1     1      554            600        -6      812
##  6  2013     1     1      554            558        -4      740
##  7  2013     1     1      555            600        -5      913
##  8  2013     1     1      557            600        -3      709
##  9  2013     1     1      557            600        -3      838
## 10  2013     1     1      558            600        -2      753
## # ... with 336,766 more rows, and 13 more variables: sched_arr_time <int>,
## #   arr_delay <dbl>, carrier <chr>, flight <int>, tailnum <chr>,
## #   origin <chr>, dest <chr>, air_time <dbl>, distance <dbl>, hour <dbl>,
## #   minute <dbl>, time_hour <dttm>, surrogate_key <int>
```
…
```r
Lahman::Batting %>%
  count(playerID) %>%
  filter(n > 1) #foreign key? Not a primary key.
```

```
## # A tibble: 13,665 x 2
##     playerID     n
##        <chr> <int>
##  1 aardsda01     9
##  2 aaronha01    23
##  3 aaronto01     7
##  4  aasedo01    13
##  5  abadan01     3
##  6  abadfe01     6
##  7 abadijo01     2
##  8 abbated01    10
##  9 abbeybe01     6
## 10 abbeych01     5
## # ... with 13,655 more rows
```

```r
Lahman::Batting %>%
  count(teamID) %>%
  filter(n > 1) #foreign key? Not a primary key.
```

```
## # A tibble: 149 x 2
##    teamID     n
##    <fctr> <int>
##  1    ALT    17
##  2    ANA   337
##  3    ARI   830
##  4    ATL  2050
##  5    BAL  2518
##  6    BFN   122
##  7    BFP    26
##  8    BL1    48
##  9    BL2   197
## 10    BL3    36
## # ... with 139 more rows
```

```r
ggplot2::diamonds
```

```
## # A tibble: 53,940 x 10
##    carat       cut color clarity depth table price     x     y     z
##    <dbl>     <ord> <ord>   <ord> <dbl> <dbl> <int> <dbl> <dbl> <dbl>
##  1  0.23     Ideal     E     SI2  61.5    55   326  3.95  3.98  2.43
##  2  0.21   Premium     E     SI1  59.8    61   326  3.89  3.84  2.31
##  3  0.23      Good     E     VS1  56.9    65   327  4.05  4.07  2.31
##  4  0.29   Premium     I     VS2  62.4    58   334  4.20  4.23  2.63
##  5  0.31      Good     J     SI2  63.3    58   335  4.34  4.35  2.75
##  6  0.24 Very Good     J    VVS2  62.8    57   336  3.94  3.96  2.48
##  7  0.24 Very Good     I    VVS1  62.3    57   336  3.95  3.98  2.47
##  8  0.26 Very Good     H     SI1  61.9    55   337  4.07  4.11  2.53
##  9  0.22      Fair     E     VS2  65.1    61   337  3.87  3.78  2.49
## 10  0.23 Very Good     H     VS1  59.4    61   338  4.00  4.05  2.39
## # ... with 53,930 more rows
```
…
```
## # A tibble: 0 x 2
## # ... with 2 variables: playerID <chr>, n <int>
```

```r
Lahman::Batting %>%
  count(playerID) %>%
  filter(n>1)
```

```
## # A tibble: 13,665 x 2
##     playerID     n
##        <chr> <int>
##  1 aardsda01     9
##  2 aaronha01    23
##  3 aaronto01     7
##  4  aasedo01    13
##  5  abadan01     3
##  6  abadfe01     6
##  7 abadijo01     2
##  8 abbated01    10
##  9 abbeybe01     6
## 10 abbeych01     5
## # ... with 13,655 more rows
```

```r
Lahman::Managers %>%
  count(playerID) %>%
  filter(n>1)
```

```
## # A tibble: 464 x 2
##     playerID     n
##        <chr> <int>
##  1  actama99     6
##  2  addybo01     2
##  3 allenbo01     2
##  4  aloufe01    14
##  5 alstowa01    23
##  6 altobjo01     7
##  7 amalfjo01     3
##  8 andersp01    26
##  9 ansonca01    21
## 10 armoubi99     5
## # ... with 454 more rows
```

Both Batting and Managers contain the foreign key "playerID" that is a primary keys in Master.   

###13.4 Mutating joins  

```r
flights2 = flights %>%
  select(year:day, hour, origin, dest, tailnum, carrier)
flights2 %>%
  select(-origin, -dest) %>%
  left_join(airlines, by = "carrier")
```

```
## # A tibble: 336,776 x 7
##     year month   day  hour tailnum carrier                     name
##    <int> <int> <int> <dbl>   <chr>   <chr>                    <chr>
##  1  2013     1     1     5  N14228      UA    United Air Lines Inc.
##  2  2013     1     1     5  N24211      UA    United Air Lines Inc.
##  3  2013     1     1     5  N619AA      AA   American Airlines Inc.
##  4  2013     1     1     5  N804JB      B6          JetBlue Airways
##  5  2013     1     1     6  N668DN      DL     Delta Air Lines Inc.
##  6  2013     1     1     5  N39463      UA    United Air Lines Inc.
##  7  2013     1     1     6  N516JB      B6          JetBlue Airways
##  8  2013     1     1     6  N829AS      EV ExpressJet Airlines Inc.
##  9  2013     1     1     6  N593JB      B6          JetBlue Airways
## 10  2013     1     1     6  N3ALAA      AA   American Airlines Inc.
## # ... with 336,766 more rows
```

```r
flights2 %>% #this is the equivalent of the left_join() function
  select(-origin, -dest) %>%
  mutate(name = airlines$name[match(carrier, airlines$carrier)])
```

```
## # A tibble: 336,776 x 7
##     year month   day  hour tailnum carrier                     name
##    <int> <int> <int> <dbl>   <chr>   <chr>                    <chr>
##  1  2013     1     1     5  N14228      UA    United Air Lines Inc.
##  2  2013     1     1     5  N24211      UA    United Air Lines Inc.
##  3  2013     1     1     5  N619AA      AA   American Airlines Inc.
##  4  2013     1     1     5  N804JB      B6          JetBlue Airways
##  5  2013     1     1     6  N668DN      DL     Delta Air Lines Inc.
##  6  2013     1     1     5  N39463      UA    United Air Lines Inc.
##  7  2013     1     1     6  N516JB      B6          JetBlue Airways
##  8  2013     1     1     6  N829AS      EV ExpressJet Airlines Inc.
##  9  2013     1     1     6  N593JB      B6          JetBlue Airways
## 10  2013     1     1     6  N3ALAA      AA   American Airlines Inc.
## # ... with 336,766 more rows
```
…
```r
avg_delay = flights %>%
  group_by(dest) %>%
  summarise(avg.delay = mean(arr_delay, na.rm = TRUE))
avg_delay
```

```
## # A tibble: 105 x 2
##     dest avg.delay
##    <chr>     <dbl>
##  1   ABQ  4.381890
##  2   ACK  4.852273
##  3   ALB 14.397129
##  4   ANC -2.500000
##  5   ATL 11.300113
##  6   AUS  6.019909
##  7   AVL  8.003831
##  8   BDL  7.048544
##  9   BGR  8.027933
## 10   BHM 16.877323
## # ... with 95 more rows
```
…
```r
flights %>%
  filter(dest %in% top_dest$dest) #amazing. This %in% thing. 
```

```
## # A tibble: 141,145 x 19
##     year month   day dep_time sched_dep_time dep_delay arr_time
##    <int> <int> <int>    <int>          <int>     <dbl>    <int>
##  1  2013     1     1      542            540         2      923
##  2  2013     1     1      554            600        -6      812
##  3  2013     1     1      554            558        -4      740
##  4  2013     1     1      555            600        -5      913
##  5  2013     1     1      557            600        -3      838
##  6  2013     1     1      558            600        -2      753
##  7  2013     1     1      558            600        -2      924
##  8  2013     1     1      558            600        -2      923
##  9  2013     1     1      559            559         0      702
## 10  2013     1     1      600            600         0      851
## # ... with 141,135 more rows, and 12 more variables: sched_arr_time <int>,
## #   arr_delay <dbl>, carrier <chr>, flight <int>, tailnum <chr>,
## #   origin <chr>, dest <chr>, air_time <dbl>, distance <dbl>, hour <dbl>,
## #   minute <dbl>, time_hour <dttm>
```


```r
flights %>%
  semi_join(top_dest) #Even more amazing.
```

```
## Joining, by = "dest"
```

```
## # A tibble: 141,145 x 19
##     year month   day dep_time sched_dep_time dep_delay arr_time
##    <int> <int> <int>    <int>          <int>     <dbl>    <int>
##  1  2013     1     1      554            558        -4      740
##  2  2013     1     1      558            600        -2      753
##  3  2013     1     1      608            600         8      807
##  4  2013     1     1      629            630        -1      824
##  5  2013     1     1      656            700        -4      854
##  6  2013     1     1      709            700         9      852
##  7  2013     1     1      715            713         2      911
##  8  2013     1     1      739            745        -6      918
##  9  2013     1     1      749            710        39      939
## 10  2013     1     1      828            830        -2     1027
## # ... with 141,135 more rows, and 12 more variables: sched_arr_time <int>,
## #   arr_delay <dbl>, carrier <chr>, flight <int>, tailnum <chr>,
## #   origin <chr>, dest <chr>, air_time <dbl>, distance <dbl>, hour <dbl>,
## #   minute <dbl>, time_hour <dttm>
```
…
It *looks* like their tailnumbers all start with "N", but this is unsolicited observation...  

2. Filter flights to only show flights with planes that have flown at least 100 flights.   

```r
flights %>%
  count(tailnum) %>%
  filter(n > 100)
```

```
## # A tibble: 1,201 x 2
##    tailnum     n
##      <chr> <int>
##  1  N0EGMQ   371
##  2  N10156   153
##  3  N10575   289
##  4  N11106   129
##  5  N11107   148
##  6  N11109   148
##  7  N11113   138
##  8  N11119   148
##  9  N11121   154
## 10  N11127   124
## # ... with 1,191 more rows
```
3. Combine fueleconomy::vehicles and fueleconomy::common to find only the records of the most common models.  

```r
#install.packages("fueleconomy")
library(fueleconomy)
fueleconomy::vehicles %>%
  semi_join(fueleconomy::common)
```

```
## Joining, by = c("make", "model")
```

```
## # A tibble: 14,531 x 12
##       id  make   model  year           class           trans
##    <int> <chr>   <chr> <int>           <chr>           <chr>
##  1  1833 Acura Integra  1986 Subcompact Cars Automatic 4-spd
##  2  1834 Acura Integra  1986 Subcompact Cars    Manual 5-spd
##  3  3037 Acura Integra  1987 Subcompact Cars Automatic 4-spd
##  4  3038 Acura Integra  1987 Subcompact Cars    Manual 5-spd
##  5  4183 Acura Integra  1988 Subcompact Cars Automatic 4-spd
##  6  4184 Acura Integra  1988 Subcompact Cars    Manual 5-spd
##  7  5303 Acura Integra  1989 Subcompact Cars Automatic 4-spd
##  8  5304 Acura Integra  1989 Subcompact Cars    Manual 5-spd
##  9  6442 Acura Integra  1990 Subcompact Cars Automatic 4-spd
## 10  6443 Acura Integra  1990 Subcompact Cars    Manual 5-spd
## # ... with 14,521 more rows, and 6 more variables: drive <chr>, cyl <int>,
## #   displ <dbl>, fuel <chr>, hwy <int>, cty <int>
```
…
```r
tail_carrier = flights %>%
  count(tailnum, carrier, sort = TRUE)
tail = flights %>%
  count(tailnum, sort = TRUE)
tail_carrier %>%
  anti_join(tail, by = c("n", "tailnum"))
```

```
## Source: local data frame [41 x 3]
## Groups: tailnum [4,044]
## 
## # A tibble: 41 x 3
##    tailnum carrier     n
##      <chr>   <chr> <int>
##  1  N197PQ      9E     2
##  2  N181PQ      9E     4
##  3  N153PQ      9E     5
##  4  N200PQ      9E     7
##  5  N176PQ      9E     7
##  6  N228PQ      9E     8
##  7  N146PQ      9E     8
##  8  N994AT      DL     9
##  9  N933AT      FL    10
## 10  N990AT      FL    14
## # ... with 31 more rows
```
…
