…
```r
by_am = gss_cat %>%
  filter(!is.na(age)) %>% #filter(!is.na()) is very smart
  group_by(age, marital) %>%
  count()
by_age = gss_cat %>%
  group_by(age) %>%
  count()
by_am
```

```
## # A tibble: 351 x 3
## # Groups:   age, marital [351]
##      age       marital     n
##    <int>        <fctr> <int>
##  1    18 Never married    89
##  2    18       Married     2
##  3    19 Never married   234
##  4    19      Divorced     3
##  5    19       Widowed     1
##  6    19       Married    11
##  7    20 Never married   227
##  8    20     Separated     1
##  9    20      Divorced     2
## 10    20       Married    21
## # ... with 341 more rows
```

```r
by_age
```

```
## # A tibble: 73 x 2
## # Groups:   age [73]
##      age     n
##    <int> <int>
##  1    18    91
##  2    19   249
##  3    20   251
##  4    21   278
##  5    22   298
##  6    23   361
##  7    24   344
##  8    25   396
##  9    26   400
## 10    27   385
## # ... with 63 more rows
```
…
```
## # A tibble: 583 x 3
## # Groups:   age, partyid [583]
##      age               partyid     n
##    <int>                <fctr> <int>
##  1    18                 Other     3
##  2    18    Republican, strong     5
##  3    18      Republican, weak     9
##  4    18 Independent, near rep     7
##  5    18           Independent    22
##  6    18 Independent, near dem    19
##  7    18        Democrat, weak    15
##  8    18      Democrat, strong    11
##  9    19                 Other     7
## 10    19    Republican, strong    13
## # ... with 573 more rows
```

```r
by_age = gss_cat %>%
  group_by(age) %>%
  count()
by_age
```

```
## # A tibble: 73 x 2
## # Groups:   age [73]
##      age     n
##    <int> <int>
##  1    18    91
##  2    19   249
##  3    20   251
##  4    21   278
##  5    22   298
##  6    23   361
##  7    24   344
##  8    25   396
##  9    26   400
## 10    27   385
## # ... with 63 more rows
```
…
